<?xml version="1.0" encoding="utf-8"?>
<!-- Generator: Adobe Illustrator 24.1.0, SVG Export Plug-In . SVG Version: 6.00 Build 0)  -->
<svg version="1.1" id="Ebene_1" xmlns="http://www.w3.org/2000/svg" xmlns:xlink="http://www.w3.org/1999/xlink" x="0px" y="0px"
	 viewBox="0 0 566.93 368.5" style="enable-background:new 0 0 566.93 368.5;" xml:space="preserve">
<g>
	<path d="M501.27,237.27c0.03-0.03-6.58,7.79-7.28,8.62c-14.64,17.64-10.59,12.89-18.96,22.94c-1.25,1.5-2.11,2.63-3.47,4.23
		c-3.37,0.2-2.28,0.14-5.89,0.2c-15.91,0.01-31.83-0.01-47.74,0.01c-10.74,0.01-21.48,0.1-32.22,0.09c-12.87,0-25.73,0.06-38.6-0.15
		c-6.54-0.11-12.93,0.7-19.34,1.76c-5.13,0.85-10.27,1.67-15.41,2.49c-0.31,0.05-0.63,0.01-1.19,0.01c1.11-2.19,2.17-4.29,3.23-6.39
		c-0.07-0.09-0.14-0.18-0.21-0.27c-0.54,0.31-1.12,0.57-1.63,0.94c-4.15,3-8.28,6.05-12.44,9.03c-5.86,4.2-11.74,8.37-17.61,12.54
		c-0.25,0.18-0.51,0.33-1,0.65c1.31-13.51,2.6-26.76,3.9-40.16c-10.31,0-20.44,0-30.64,0c-0.67-3.02-1.31-5.93-2.03-9.21
		c-0.52,0.8-0.9,1.3-1.18,1.84c-1.05,1.98-2.12,3.94-3.07,5.97c-0.42,0.9-0.96,1.18-1.92,1.15c-2.44-0.07-4.89,0.02-7.33-0.04
		c-0.92-0.03-1.33,0.31-1.64,1.14c-2.7,7.14-5.45,14.25-8.14,21.39c-0.33,0.87-0.82,1.35-1.66,1.69
		c-12.93,5.26-25.85,10.56-38.79,15.81c-0.86,0.35-1.21,0.76-1.27,1.71c-0.5,7.74-1.07,15.47-1.62,23.2
		c-0.24,3.43-0.46,6.86-0.76,10.28c-0.04,0.45-0.43,1.04-0.83,1.27c-11.89,6.7-23.8,13.36-35.72,20.02
		c-0.23,0.13-0.49,0.22-0.98,0.44c2.33-32.29,4.64-64.39,6.97-96.62c-12.53,0-24.9,0-37.54,0c0.26-0.5,0.38-0.81,0.57-1.06
		c7.9-10.78,15.81-21.55,23.74-32.3c0.27-0.37,0.88-0.68,1.35-0.69c4.37-0.11,8.73-0.18,13.1-0.2c0.93-0.01,1.3-0.21,1.37-1.25
		c0.39-6.06,0.88-12.12,1.33-18.17c0.04-0.47,0.04-0.95,0.08-1.65c-29.66,0.26-59.24,0.51-89.09,0.77c0.4-0.53,0.63-0.88,0.9-1.19
		c10.39-11.7,20.79-23.39,31.15-35.11c0.73-0.83,1.49-1.11,2.58-1.11c18.48,0.03,36.96,0.02,55.44,0.02c1.75,0,1.74,0,1.87-1.79
		c0.87-12.2,1.75-24.39,2.62-36.59c0.68-9.49,1.33-18.98,2.02-28.46c0.68-9.45,1.39-18.89,2.07-28.34
		c0.34-4.66,0.61-9.33,1.05-13.98c0.09-0.99,0.57-2.13,1.25-2.86c8.49-9.1,17.03-18.15,25.59-27.19c3.52-3.72,7.12-7.37,10.69-11.04
		c0.18-0.19,0.43-0.31,0.8-0.57c0,0.98,0.05,1.79-0.01,2.6c-0.53,7.85-1.07,15.71-1.62,23.56c-0.61,8.65-1.23,17.3-1.84,25.95
		c-0.52,7.37-1.01,14.75-1.53,22.13c-0.6,8.41-1.23,16.82-1.83,25.23c-0.53,7.37-1.01,14.75-1.54,22.13
		c-0.6,8.45-1.22,16.9-1.83,25.35c-0.07,0.92-0.07,1.84-0.17,2.75c-0.06,0.57-0.12,1.04,0.65,1.12c0.76,0.08,0.85-0.39,0.89-0.95
		c0.25-3.27,0.51-6.53,0.76-9.8c0.62-7.89,1.25-15.77,1.86-23.66c0.52-6.61,1.02-13.23,1.53-19.84c0.12-1.55,0.26-3.09,0.4-4.74
		c0.54,0,0.97,0,1.41,0c49.71,0,99.41,0,149.12-0.02c0.97,0,1.51,0.3,1.98,1.12c1.82,3.15,3.71,6.26,5.58,9.38
		c0.2,0.33,0.57,0.92,0.98,1.53c0.13-0.72,0.19-1.48,0.24-1.95c0.82-8.31,1.63-16.62,2.43-24.93c0.02-0.2,0.07-0.4,0.05-0.6
		c-0.16-2.6,1.11-4.39,2.96-6.14c8.06-7.67,15.99-15.48,23.97-23.24c0.19-0.18,0.41-0.34,0.9-0.73
		c-3.37,34.99-6.71,69.67-10.07,104.53c28.47,0,56.74,0,85.32,0c-0.74,0.96-1.28,1.68-1.84,2.39c-8.48,10.7-16.96,21.38-25.41,32.1
		c-0.64,0.81-1.29,1.1-2.32,1.09c-11.58-0.04-23.17-0.01-34.75-0.05c-0.98,0-1.47,0.3-1.9,1.18c-5.34,11-10.74,21.97-16.09,32.97
		c-0.42,0.87-0.93,1.18-1.91,1.17c-5.97-0.05-11.95-0.02-17.92-0.02c-0.47,0-0.95,0-1.55,0c-0.18,1.55-0.34,3-0.53,4.61
		c0.5,0,0.89,0,1.28,0c45.14,0,88.46,0,133.6,0C498.66,237.27,498.96,237.27,501.27,237.27L501.27,237.27z M289.34,280.26
		c0.46-0.27,0.7-0.4,0.93-0.55c7.59-5.36,15.18-10.72,22.74-16.12c0.42-0.3,0.76-0.94,0.82-1.46c0.62-5.88,1.19-11.77,1.76-17.65
		c0.75-7.79,1.49-15.59,2.25-23.39c0.78-8.03,1.57-16.07,2.36-24.1c0.19-1.9,0.4-3.8,0.6-5.71c6.01,0,11.91,0,17.87,0
		c0,0.49,0.03,0.89,0,1.28c-0.44,5.06-0.87,10.11-1.33,15.17c-0.44,4.81-0.93,9.62-1.33,14.44c-0.61,7.41-1.18,14.82-1.73,22.23
		c-0.18,2.38-0.71,4.6-1.87,6.74c-3.03,5.63-5.94,11.33-8.89,17c-0.17,0.32-0.32,0.65-0.59,1.21c1.87-0.29,3.45-0.56,5.03-0.77
		c4.04-0.53,8.08-1.26,12.14-1.5c4.27-0.26,8.57-0.05,12.86-0.05c37.92-0.01,75.85-0.02,113.77-0.02c0.79,0,1.42-0.07,2-0.77
		l19.28-22.5c0,0,1.29-1.49,0,0c-43.57,0-87.59,0.08-131,0.08c0.57-5.91,1.14-11.74,1.7-17.62c0.65,0,1.13,0,1.6,0
		c6.61,0,13.23-0.02,19.84,0.02c0.87,0,1.36-0.23,1.76-1.04c3.13-6.34,6.31-12.66,9.46-18.99c0.44-0.88,0.84-1.77,1.34-2.85
		c-10.78,0-21.34,0-32.04,0c0.46-4.21,0.91-8.27,1.36-12.39c0.69,0,1.21,0,1.73,0c23.89,0,47.78-0.01,71.68,0.03
		c1.07,0,1.75-0.34,2.4-1.16c5.14-6.5,10.33-12.96,15.5-19.43c0.49-0.61,0.96-1.23,1.64-2.1c-88.32,0-176.35,0-264.61,0
		c3.32-46.79,6.63-93.39,9.93-139.99c-0.58,0.15-0.86,0.36-1.09,0.61c-7.56,8.05-15.13,16.1-22.66,24.18
		c-0.48,0.52-0.85,1.32-0.9,2.02c-0.47,5.74-0.86,11.48-1.26,17.22c-0.51,7.18-1.02,14.35-1.53,21.53
		c-0.52,7.21-1.07,14.43-1.59,21.64c-0.52,7.17-1.01,14.35-1.52,21.53c-0.62,8.69-1.24,17.38-1.87,26.07
		c-0.13,1.73-0.29,3.46-0.44,5.25c-0.7,0-1.22,0-1.74,0c-19.52,0-39.05,0.01-58.57-0.02c-0.91,0-1.59,0.22-2.21,0.91
		c-6.59,7.47-13.2,14.93-19.8,22.39c-0.22,0.25-0.37,0.56-0.66,1.03c27.21-0.23,54.2-0.47,81.32-0.7
		c-0.82,11.36-1.64,22.57-2.46,33.91c-0.62,0-1.1,0-1.57,0c-4.97,0-9.94,0.02-14.91-0.02c-0.86-0.01-1.38,0.27-1.88,0.96
		c-4.68,6.44-9.4,12.85-14.11,19.28c-0.2,0.28-0.37,0.58-0.69,1.1c10.65,0,21.07,0,31.63,0c-2.21,30.61-4.4,61.04-6.6,91.62
		c0.42-0.18,0.68-0.27,0.91-0.4c7.42-4.12,14.83-8.26,22.26-12.35c0.74-0.41,0.83-0.96,0.88-1.66c0.33-4.94,0.68-9.89,1.03-14.83
		c0.77-10.68,1.56-21.36,2.31-32.04c0.61-8.73,1.17-17.46,1.77-26.2c0.08-1.14,0.23-2.28,0.35-3.44c8.05,0,15.96,0,24.07,0
		c-4.53,12.01-9.02,23.89-13.61,36.03c0.61-0.2,0.87-0.26,1.12-0.36c8.96-3.67,17.92-7.33,26.86-11.05
		c0.53-0.22,1.05-0.85,1.26-1.41c2.93-7.6,5.82-15.22,8.66-22.85c0.35-0.93,0.81-1.18,1.74-1.16c2.64,0.06,5.29-0.02,7.94,0.04
		c0.89,0.02,1.34-0.29,1.74-1.07c2.6-5.09,5.26-10.15,7.9-15.22c0.86-1.65,1.71-3.31,2.64-5.12c-4.66,0-9.1,0-13.8,0
		c3.01-7.93,5.96-15.69,8.91-23.46c0.33,0.32,0.41,0.58,0.47,0.84c3.03,14.26,6.08,28.51,9.06,42.77c0.21,1.02,0.6,1.26,1.57,1.25
		c6.77-0.04,13.55-0.02,20.32-0.02c0.42,0,0.85,0,1.47,0c-3.95-18.72-7.85-37.21-11.78-55.83c9.09,0,17.85,0,26.76,0
		C295.11,220.89,292.24,250.46,289.34,280.26z M347.91,127.18c0.1-0.03,0.19-0.07,0.29-0.1c0.33,0.53,0.67,1.06,0.99,1.6
		c5.16,8.7,10.31,17.4,15.5,26.08c0.28,0.47,0.89,1.06,1.35,1.07c3.4,0.09,6.81,0.07,10.22,0.01c0.3-0.01,0.82-0.49,0.86-0.79
		c0.61-5.84,1.16-11.69,1.73-17.53c0.59-6.16,1.18-12.33,1.78-18.49c0.68-7.04,1.37-14.08,2.06-21.11
		c0.62-6.36,1.24-12.72,1.85-19.09c0.14-1.47,0.24-2.94,0.38-4.68c-0.45,0.34-0.61,0.44-0.75,0.57c-3.97,3.9-7.97,7.77-11.88,11.72
		c-0.53,0.53-0.82,1.45-0.92,2.23c-0.36,2.85-0.59,5.72-0.86,8.59c-0.61,6.28-1.24,12.56-1.8,18.85
		c-0.46,5.09-1.02,10.22-1.45,15.32c-0.07,0.95-0.09,1.76-0.21,2.99c-0.45-0.66-0.7-1-0.94-1.37c-4.63-7.57-9.26-15.14-13.86-22.74
		c-0.45-0.74-0.91-1.06-1.79-1.04c-2.96,0.06-5.93,0.02-8.9,0.02c-1.35,0-2.71,0-4.19,0c-1.19,15.55-2.37,30.98-3.56,46.46
		c4.14,0,8.05,0,12.12,0C346.59,146.19,347.25,136.69,347.91,127.18z M268.66,155.75c0.61,0.03,1.12,0.07,1.63,0.07
		c7.21,0,14.42,0,21.64,0c9.3,0,18.59-0.01,27.89,0.02c0.95,0,1.31-0.23,1.36-1.25c0.14-2.71,0.43-5.41,0.64-8.12
		c0.92-11.99,1.83-23.98,2.78-35.96c0.07-0.92-0.15-1.18-1.06-1.18c-16.27,0.02-32.53,0.02-48.8,0c-0.79,0-1.15,0.23-1.24,1.05
		c-0.64,6.16-1.3,12.31-1.96,18.47c-0.69,6.43-1.39,12.86-2.08,19.3C269.17,150.64,268.93,153.13,268.66,155.75z M263.45,109.35
		c-0.82,0-1.32,0-1.82,0c-16.83,0-33.66,0-50.49,0c-0.28,0-0.56,0.02-0.84,0c-0.7-0.06-1,0.22-1.06,0.94
		c-0.48,6.41-0.97,12.82-1.47,19.24c-0.52,6.73-1.06,13.46-1.58,20.19c-0.16,2.01-0.28,4.02-0.43,6.17c3.96,0,7.72,0.02,11.48-0.04
		c0.24,0,0.65-0.53,0.67-0.84c0.21-2.51,0.35-5.02,0.52-7.53c0.13-1.97,0.29-3.94,0.44-5.96c5.75,0,11.32,0.02,16.88-0.02
		c0.86-0.01,1.38,0.26,1.88,0.95c3,4.19,6.07,8.35,9.08,12.53c0.46,0.64,0.95,0.93,1.77,0.93c4.33-0.04,8.65-0.02,12.98-0.02
		c0.34,0,0.67-0.06,1.25-0.11c-5.47-7.19-10.81-14.21-16.19-21.28C252.13,126.17,257.69,117.9,263.45,109.35z M320.74,257.94
		c0.16,0.04,0.32,0.08,0.49,0.13c0.21-0.31,0.46-0.6,0.63-0.92c1.8-3.43,3.59-6.87,5.36-10.32c0.2-0.38,0.34-0.82,0.38-1.25
		c0.66-7.04,1.29-14.08,1.94-21.13c0.62-6.68,1.25-13.37,1.86-20.05c0.2-2.22,0.36-4.44,0.55-6.73c-1.82,0-3.52,0-5.36,0
		C324.63,217.8,322.69,237.87,320.74,257.94z M290.9,197.72c-4,0-7.73,0-11.64,0c2.32,12.08,4.74,24.01,7.52,35.85
		c0.2-0.01,0.39-0.02,0.59-0.03C288.54,221.62,289.72,209.71,290.9,197.72z M224.87,148c-0.3,4.65-0.58,9.11-0.88,13.77
		c6.53,0.21,12.92,0.25,19.47-0.15c-0.23-0.44-0.33-0.71-0.49-0.92c-2.97-4.07-5.94-8.14-8.92-12.2c-0.17-0.23-0.5-0.48-0.76-0.48
		C230.54,147.99,227.78,148,224.87,148z M266.23,118.04c0,0,0.16-1.1-0.47-0.14c-0.09,0.13-0.18,0.26-0.27,0.39
		c-3.54,5.14-7.08,10.26-10.57,15.43c-0.19,0.29-0.08,1,0.15,1.32c2.38,3.21,4.83,6.38,7.24,9.57c0.19,0.25,0.28,0.57,0.42,0.86
		c0.19-0.09,0.38-0.19,0.57-0.28C264.27,136.14,265.25,127.09,266.23,118.04z M188.8,280.45c0.16,0.03,0.31,0.06,0.47,0.09
		c3.5-8.55,6.83-17.17,9.89-26.12c-2.49,0-4.68,0-6.87,0c-1.74,0-1.7,0-1.82,1.77c-0.44,6.45-0.91,12.89-1.37,19.34
		C188.99,277.16,188.9,278.81,188.8,280.45z M353.27,148.29c-0.27,0.29-0.36,0.35-0.36,0.41c-0.29,4.13-0.59,8.27-0.82,12.4
		c-0.01,0.22,0.58,0.68,0.9,0.69c1.68,0.07,3.36,0.04,5.04,0.04c0.98,0,1.96,0,3.37,0C358.57,157.12,356.09,152.66,353.27,148.29z"
		/>
	<path d="M186.22,225.61c0.81-11.19,1.61-22.17,2.41-33.22c13.7,0,27.3,0,41.05,0c-0.79,2.1-1.54,4.11-2.3,6.11
		c-3.26,8.62-6.54,17.24-9.78,25.88c-0.34,0.92-0.78,1.26-1.8,1.26c-9.38-0.05-18.75-0.03-28.13-0.03
		C187.24,225.61,186.81,225.61,186.22,225.61z M193.16,219.32c0.58,0,1.01,0,1.44,0c5.49,0,10.97-0.04,16.46,0.03
		c1.12,0.01,1.65-0.35,2.02-1.36c2.16-5.92,4.37-11.82,6.56-17.73c0.14-0.39,0.2-0.81,0.32-1.32c-0.51-0.05-0.86-0.12-1.21-0.12
		c-4.76-0.03-9.53-0.08-14.29-0.08c-2.88,0-5.76,0.09-8.65,0.13c-0.84,0.01-1.25,0.27-1.29,1.25c-0.13,2.83-0.41,5.65-0.61,8.48
		C193.65,212.1,193.42,215.6,193.16,219.32z"/>
	<path d="M309.81,143.33c-9.28,0-18.43,0-27.77,0c0.78-7.28,1.55-14.45,2.33-21.68c9.03,0,17.98,0,27.07,0
		C310.89,128.9,310.35,136.09,309.81,143.33z M304.07,136.96c0.23-3.07,0.46-6.02,0.67-8.91c0.01-0.2-0.33-0.17-0.4-0.17
		c-4.48-0.02-9.47-0.07-13.95-0.03c-0.34-0.01-0.44,0.39-0.34-0.01c0.18-0.76-0.33,2.64-0.46,4c-0.17,1.4-0.41,3.69-0.51,5.11
		C294.08,136.96,299.08,136.96,304.07,136.96z"/>
	<path d="M240.92,121.6c-1.57,2.1-3.09,3.99-4.45,5.99c-0.73,1.08-1.55,1.45-2.85,1.42c-4.44-0.09-8.88-0.03-13.57-0.03
		c0.12-2.49,0.23-4.89,0.34-7.38C227.21,121.6,233.95,121.6,240.92,121.6z"/>
</g>
</svg>
